<?xml version="1.0" encoding="UTF-8" standalone="no"?>
<!DOCTYPE svg PUBLIC "-//W3C//DTD SVG 1.1//EN" "http://www.w3.org/Graphics/SVG/1.1/DTD/svg11.dtd">
<svg width="100%" height="100%" viewBox="0 0 439 78" version="1.1" xmlns="http://www.w3.org/2000/svg" xmlns:xlink="http://www.w3.org/1999/xlink" xml:space="preserve" xmlns:serif="http://www.serif.com/" style="fill-rule:evenodd;clip-rule:evenodd;stroke-linejoin:round;stroke-miterlimit:2;">
    <g transform="matrix(1,0,0,1,-100,-96.8925)">
        <text x="101px" y="113.195px" style="font-family:'OpenSans', 'Open Sans', sans-serif;font-size:20px;fill:rgb(51,102,69);">Social Cycling ayuda a coor<tspan x="350.59px 362.846px " y="113.195px 113.195px ">di</tspan>nar ciclistas par<tspan x="512.484px " y="113.195px ">a</tspan></text>
        <text x="101px" y="137.195px" style="font-family:'OpenSans', 'Open Sans', sans-serif;font-size:20px;fill:rgb(51,102,69);">dar lugar a grupos o car<tspan x="322.982px 334.105px " y="137.195px 137.195px ">av</tspan>anas en todos lados,</text>
        <text x="101px" y="161.195px" style="font-family:'OpenSans', 'Open Sans', sans-serif;font-size:20px;fill:rgb(51,102,69);">todo el tiempo.</text>
    </g>
</svg>
